module github.com/KenGathua/go-graphql

go 1.18

require (
	github.com/99designs/gqlgen v0.17.20
	github.com/iyiola-dev/go-graphql v0.0.0-20211221004809-83a468afc6ce
	github.com/joho/godotenv v1.4.0
	github.com/vektah/gqlparser/v2 v2.5.1
)

require (
	github.com/agnivade/levenshtein v1.1.1 // indirect
	github.com/cpuguy83/go-md2man/v2 v2.0.1 // indirect
	github.com/gorilla/websocket v1.5.0 // indirect
	github.com/hashicorp/golang-lru v0.5.4 // indirect
	github.com/jackc/chunkreader/v2 v2.0.1 // indirect
	github.com/jackc/pgconn v1.10.1 // indirect
	github.com/jackc/pgio v1.0.0 // indirect
	github.com/jackc/pgpassfile v1.0.0 // indirect
	github.com/jackc/pgproto3/v2 v2.2.0 // indirect
	github.com/jackc/pgservicefile v0.0.0-20200714003250-2b9c44734f2b // indirect
	github.com/jackc/pgtype v1.9.0 // indirect
	github.com/jackc/pgx/v4 v4.14.0 // indirect
	github.com/jinzhu/inflection v1.0.0 // indirect
	github.com/jinzhu/now v1.1.4 // indirect
	github.com/mitchellh/mapstructure v1.3.1 // indirect
	github.com/russross/blackfriday/v2 v2.1.0 // indirect
	github.com/stretchr/testify v1.8.0 // indirect
	github.com/urfave/cli/v2 v2.8.1 // indirect
	github.com/xrash/smetrics v0.0.0-20201216005158-039620a65673 // indirect
	golang.org/x/crypto v0.0.0-20210921155107-089bfa567519 // indirect
	golang.org/x/mod v0.6.0-dev.0.20220419223038-86c51ed26bb4 // indirect
	golang.org/x/sys v0.1.0 // indirect
	golang.org/x/text v0.4.0 // indirect
	golang.org/x/tools v0.1.12 // indirect
	gopkg.in/yaml.v3 v3.0.1 // indirect
	gorm.io/driver/postgres v1.2.3 // indirect
	gorm.io/gorm v1.22.4 // indirect
)
